…
<img src="mmi_facs_files/figure-markdown_github-ascii_identifiers/unnamed-chunk-8-1.png" width="1000px" style="display: block; margin: auto;" /> So around 7.7 ± 4.80 blood samples are drawn each day. To see if there is a batch effect across day of blood draw we can estimate the intraclass correlation coefficient. This is the correlation among observations within the same day. If this parameter is large it means that the variation between days is larger then the variation within days, indicating a batch effect, since donors where randomly assigned to day of blood draw. To compute the intraclass correlation coefficient we must first setup the models. In this case we only want the day of sampling as a random effect, and we want to build a model for each immunophenotype. The intraclass coefficient can also be interpreted as the proportion of the total variability attributed to variability between days.

``` r
spec <- specify(G.annotation$FACS.NAME, rands = "DayOfSampling")
fam <- make_fam(spec, db)
intraclass <- prop_var(fam)
select(intraclass, response, prop_var) %>% arrange(desc(prop_var))
```

    ## # A tibble: 166 x 2
    ##                                response prop_var
    ##                                   <chr>    <dbl>
    ##  1        MFI_CCR7_in_CD8bpos_EM.panel1 88.57938
    ##  2         MFI_CCR7_in_CD4pos_EM.panel1 88.37496
    ##  3      MFI_CCR7_in_CD8bpos_EMRA.panel1 88.27123
    ##  4        MFI_CCR7_in_CD8bpos_CM.panel1 86.35755
    ##  5            CD19_MFI_in_Bcells.panel6 83.23105
    ##  6         MFI_NEUTROPHILS_FceRI.panel7 83.14817
    ##  7         MFI_CCR7_in_CD4pos_CM.panel1 77.35704
    ##  8       MFI_CD16_in_CD14hi_mono.panel5 76.25022
    ##  9      MFI_CCR7_oin_CD4pos_EMRA.panel1 74.21744
    ## 10           MFI_HLADR_in_CD56hi.panel4 70.71926
    ## 11         MFI_CCR7_in_CD4_naive.panel1 70.65100
    ## 12     MFI_CCR7_in_CD8bpos_naive.panel1 70.52851
    ## 13 MFI_of_HLADR_in_CD69posCD16hi.panel4 69.36956
    ## 14 MFI_of_HLADR_in_CD8aposCD16hi.panel4 69.31276
    ## 15           MFI_HLADR_in_CD16hi.panel4 69.09242
    ## 16 MFI_of_HLADR_in_CD8aposCD56hi.panel4 68.63971
    ## 17   MFI_CD16_in_CD16hi_of_NKnew.panel4 59.76492
    ## 18  MFI_of_CD69_in_CD69posCD16hi.panel4 50.39060
    ## 19          MFI_NEUTROPHILS_CD16.panel7 49.86390
    ## 20            MFI_BASOPHILS_CD16.panel7 47.69724
    ## 21               CD86_MFI_in_pDC.panel8 44.83041
    ## 22         MFI_NEUTROPHILS_CD62L.panel7 44.45143
    ## 23         MFI_EOSINOPHILS_FceRI.panel7 44.02209
    ## 24         MFI_of_CD127_of_ILC1.panel10 42.53130
    ## 25          MFI_EOSINOPHILS_CD16.panel7 42.11400
    ## 26                        N_cDC1.panel8 41.88718
    ## 27         MFI_NKp46_of_NK_cells.panel4 39.83472
    ## 28  MFI_of_CD69_in_CD8aposCD56hi.panel4 37.37920
    ## 29         MFI_EOSINOPHILS_CD62L.panel7 36.59514
    ## 30       MFI_ICOS_in_memory_Treg.panel2 34.89225
    ## 31        MFI_ICOS_in_naive_Treg.panel2 34.38638
    ## 32       N_HLADRpos_in_CD4pos_CM.panel1 34.21556
    ## 33            CD24_MFI_in_NaiveB.panel6 33.66949
    ## 34            MFI_CD69_in_CD56hi.panel4 33.31129
    ## 35                        N_cDC3.panel8 32.63381
    ## 36 MFI_of_HLADR_in_CD69posCD56hi.panel4 32.11407
    ## 37  MFI_of_CD69_in_CD8aposCD16hi.panel4 31.98400
    ## 38        CD21_MFI_in_memBCD24lo.panel6 31.56317
    ## 39         CD24_MFI_in_memBcells.panel6 30.24108
    ## 40            MFI_CD69_in_CD16hi.panel4 30.20404
    ## # ... with 126 more rows
…
