Analysis of the impact of non-genetical factors on immunophenotypes
…
So around \(7.7 \pm 4.80\) blood samples are drawn each day. To see if there is a batch effect across day of blood draw we can estimate the intraclass correlation coefficient. This is the correlation among observations within the same day (assuming the correlation is the same across days). If this parameter is large it means that the variation between days is larger then the variation within days, indicating a batch effect, since donors where randomly assigned to day of blood draw. The intraclass coefficient can also be interpreted as the proportion of the total variability attributed to variability between days. To compute it we must first setup the models. In this case we only want the day of sampling as a random effect, and we want to build a model for each immunophenotype:

spec <- specify(facs_annotation$FACS.NAME, rands = "DayOfSampling")
fam <- make_fam(spec, db)
intraclass <- prop_var(fam)
select(intraclass, response, prop_var) %>% arrange(desc(prop_var))

## # A tibble: 166 x 2
##    response                        prop_var
##    <chr>                              <dbl>
##  1 MFI_CCR7_in_CD8bpos_EM.panel1       88.6
##  2 MFI_CCR7_in_CD4pos_EM.panel1        88.4
##  3 MFI_CCR7_in_CD8bpos_EMRA.panel1     88.3
##  4 MFI_CCR7_in_CD8bpos_CM.panel1       86.4
##  5 CD19_MFI_in_Bcells.panel6           83.2
##  6 MFI_NEUTROPHILS_FceRI.panel7        83.1
##  7 MFI_CCR7_in_CD4pos_CM.panel1        77.4
##  8 MFI_CD16_in_CD14hi_mono.panel5      76.3
##  9 MFI_CCR7_oin_CD4pos_EMRA.panel1     74.2
## 10 MFI_HLADR_in_CD56hi.panel4          70.7
## # ... with 156 more rows
…
# Add some metadata
selected_confs <- left_join(selected_confs, facs_annotation, 
                            by = c("response" = "FACS.NAME")) %>% 
  select(-response) %>% 
  rename(response = FACS.DESC)

There are 140 parameters significant on the 0.01 level. Printing and arranging, we see that the strongest signals are found for CMV infection status, age, and smoking:

left_join(hyp, facs_annotation, by = c("response" = "FACS.NAME")) %>% 
  select(-response, -test, -Type) %>% 
  rename(response = FACS.DESC) %>% 
  arrange(FDR)

## # A tibble: 5,207 x 4
##    treatment           p      FDR response                  
##    <chr>           <dbl>    <dbl> <chr>                     
##  1 CMVInfection 8.07e-92 4.20e-88 EMRA CD4+ T cells         
##  2 Age          3.37e-80 8.78e-77 naive CD8+ T cells        
##  3 CMVInfection 1.18e-62 2.06e-59 HLA-DR+ EMRA CD4+ T cells 
##  4 CMVInfection 2.14e-59 2.78e-56 EMRA CD8+ T cells         
##  5 CMVInfection 3.64e-43 3.79e-40 HLA-DR+ EMRA CD8+ T cells 
##  6 CMVInfection 1.17e-38 1.02e-35 EM CD4+ T cells           
##  7 CMVInfection 2.51e-33 1.87e-30 HLA-DR+ in EM CD4+ T cells
##  8 Age          2.71e-31 1.76e-28 CD4- CD8- MAIT cells      
##  9 Age          6.84e-31 3.95e-28 CD8b- CD4- T cells        
## 10 Age          5.39e-28 2.80e-25 naive Treg                
## # ... with 5,197 more rows
…
